
hex_value =

3b509a4bb50654c11525b0b3557a9dc1


hex_value =

3b509a4bb50654c11525b0b3557a9dc1


hex_value =

3b509a4bb50654c11525b0b3557a9dc1


hex_value =

3b509a4bb50654c11525b0b3557a9dc1


hex_value =

3b509a4bb50654c11525b0b3557a9dc1


hex_value =

3b509a4bb50654c11525b0b3557a9dc1


hex_value =

3b509a4bb50654c11525b0b3557a9dc1


hex_value =

3b509a4bb50654c11525b0b3557a9dc1


hex_value =

3b509a4bb50654c11525b0b3557a9dc1


hex_value =

3b509a4bb50654c11525b0b3557a9dc1


hex_value =

3b509a4bb50654c11525b0b3557a9dc1


hex_value =

3b509a4bb50654c11525b0b3557a9dc1


hex_value =

3b509a4bb50654c11525b0b3557a9dc1


hex_value =

3b509a4bb50654c11525b0b3557a9dc1


hex_value =

3b509a4bb50654c11525b0b3557a9dc1


t_d =

   70.7031


hex_value =

3b509a4bb50654c11525b0b3557a9dc1


hex_value =

3b509a4bb50654c11525b0b3557a9dc1


hex_value =

3b509a4bb50654c11525b0b3557a9dc1


hex_value =

3b509a4bb50654c11525b0b3557a9dc1


hex_value =

3b509a4bb50654c11525b0b3557a9dc1


hex_value =

3b509a4bb50654c11525b0b3557a9dc1


hex_value =

3b509a4bb50654c11525b0b3557a9dc1


hex_value =

3b509a4bb50654c11525b0b3557a9dc1


hex_value =

3b509a4bb50654c11525b0b3557a9dc1


hex_value =

3b509a4bb50654c11525b0b3557a9dc1


hex_value =

3b509a4bb50654c11525b0b3557a9dc1


hex_value =

3b509a4bb50654c11525b0b3557a9dc1


hex_value =

3b509a4bb50654c11525b0b3557a9dc1


hex_value =

3b509a4bb50654c11525b0b3557a9dc1


hex_value =

3b509a4bb50654c11525b0b3557a9dc1


t_c =

   67.8438

