
j =

     1


f_RG =

   2.2783e+03


f_C =

   2.4552e+03


cov =

    0.8885    0.9059    0.8535
    0.9057    0.8973    0.9058
    0.8821    0.8938    0.9077


covd =

   -0.0003   -0.0046    0.0044
   -0.0004    0.0078   -0.0032
    0.0115    0.0087    0.0055


entropy_RGB =

    6.8725    6.9617    6.3621    6.7321
    7.9883    7.9891    7.9891    7.9888


NPCR =

   99.5987   99.5789   99.6246   99.8292
   99.6201   99.6078   99.5804   99.8277
   99.6658   99.5956   99.6262   99.7926
   99.5880   99.6277   99.6658   99.8201
   99.6078   99.6002   99.5926   99.8033
   99.5941   99.5819   99.6552   99.8033
   99.6109   99.6414   99.6109   99.8368
   99.6216   99.6170   99.5926   99.8155
   99.6185   99.6002   99.6567   99.8185


UACI =

   36.2157   19.6721   24.1540   26.9353
   36.3724   19.7314   24.2197   27.0467
   36.2920   19.7236   24.1792   26.9734
   36.3089   19.7053   24.1852   26.9657
   36.2787   19.7888   24.1491   27.0246
   36.3790   19.7197   24.1395   26.9991
   36.3501   19.6994   24.1733   26.9978
   36.3230   19.7307   24.1288   26.9877
   36.2999   19.6428   24.2363   26.9491


MSE =

   1.0e+04 *

    3.2749    3.3969    3.6258


t_d =

   1.3115e+03


j =

     1


j =

     2


j =

     3


j =

     4


j =

     5


j =

     6


j =

     7


j =

     8


t_d =

    7.1563


PSNR =

   Inf   Inf   Inf

