
t_d =

   1.5592e+03


t_d =

    28.2968750000000e+000


t_d =

    1.58789062500000e+003


t_d =

    28.4218750000000e+000

 
f_RG =
 
2278.0
 

f_C =

    0.00000000000000e+000


cov =

    0.8885    0.9059    0.8535    0.8535
    0.9057    0.8973    0.9058    0.9058
    0.8751    0.9032    0.8982    0.9098
    0.8890    0.8890    0.8890    0.8890


cov_d =

    0.0060    0.0014    0.0009    0.0009
   -0.0046    0.0004   -0.0043   -0.0043
   -0.0617    0.0064    0.0548    0.0689
   -0.0129   -0.0129   -0.0129   -0.0129


entropy_RGB =

    6.8725    6.9617    6.3621    6.7321
    7.9907    7.9911    7.9905    7.9907


NPCR =

    0.9979    0.9983    0.9986    0.9965
    0.9983    0.9982    0.9986    0.9960
    0.9982    0.9978    0.9979    0.9957
    0.9980    0.9984    0.9978    0.9959
    0.9981    0.9977    0.9979    0.9956
    0.9981    0.9981    0.9981    0.9963
    0.9982    0.9983    0.9984    0.9961
    0.9978    0.9977    0.9978    0.9963
    0.9979    0.9979    0.9980    0.9962


UACI =

    0.3803    0.4156    0.4358    0.4541
    0.3823    0.4139    0.4360    0.4536
    0.3799    0.4132    0.4357    0.4523
    0.3789    0.4148    0.4361    0.4530
    0.3803    0.4133    0.4358    0.4525
    0.3807    0.4128    0.4347    0.4525
    0.3801    0.4132    0.4372    0.4526
    0.3805    0.4143    0.4356    0.4528
    0.3816    0.4120    0.4346    0.4520


MSE_zuo =

   1.0e+04 *

         0         0    1.0962


MSE_you =

   1.0e+04 *

         0    1.0863         0


PSNR_true =

    8.1336    7.7389    7.9809


PSNR_fianlly =

   Inf   Inf   Inf

