
StockCode_G =

600000


lambda =

    3.2897


lambda =

    3.2889


lambda =

    3.2900


lambda =

    3.2890


lam_dan =

    0.0930


StockCode_G =

600000


lambda =

    3.2897


lambda =

    3.2889


lambda =

    3.2900


lambda =

    3.2890


lam_dan =

    0.0930

